module procedure-backend

go 1.21

toolchain go1.22.5

require (
	github.com/gin-contrib/cors v1.7.1
	github.com/gin-gonic/gin v1.10.0
	github.com/go-playground/validator v9.31.0+incompatible
	github.com/go-redis/redis/v8 v8.11.5
	github.com/golang-jwt/jwt v3.2.2+incompatible
	github.com/joho/godotenv v1.5.1
	github.com/swaggo/files v1.0.1
	github.com/swaggo/gin-swagger v1.6.0
	github.com/swaggo/swag v1.16.3
	go.mongodb.org/mongo-driver v1.14.0
	golang.org/x/crypto v0.25.0
)

require (
	github.com/KyleBanks/depth v1.2.1 // indirect
	github.com/bytedance/sonic v1.11.9 // indirect
	github.com/bytedance/sonic/loader v0.1.1 // indirect
	github.com/cespare/xxhash/v2 v2.2.0 // indirect
	github.com/cloudwego/base64x v0.1.4 // indirect
	github.com/cloudwego/iasm v0.2.0 // indirect
	github.com/dgryski/go-rendezvous v0.0.0-20200823014737-9f7001d12a5f // indirect
	github.com/gabriel-vasile/mimetype v1.4.4 // indirect
	github.com/gin-contrib/sse v0.1.0 // indirect
	github.com/go-openapi/jsonpointer v0.21.0 // indirect
	github.com/go-openapi/jsonreference v0.21.0 // indirect
	github.com/go-openapi/spec v0.21.0 // indirect
	github.com/go-openapi/swag v0.23.0 // indirect
	github.com/go-playground/locales v0.14.1 // indirect
	github.com/go-playground/universal-translator v0.18.1 // indirect
	github.com/go-playground/validator/v10 v10.22.0 // indirect
	github.com/goccy/go-json v0.10.3 // indirect
	github.com/golang/snappy v0.0.1 // indirect
	github.com/josharian/intern v1.0.0 // indirect
	github.com/json-iterator/go v1.1.12 // indirect
	github.com/klauspost/compress v1.13.6 // indirect
	github.com/klauspost/cpuid/v2 v2.2.8 // indirect
	github.com/leodido/go-urn v1.4.0 // indirect
	github.com/mailru/easyjson v0.7.7 // indirect
	github.com/mattn/go-isatty v0.0.20 // indirect
	github.com/modern-go/concurrent v0.0.0-20180306012644-bacd9c7ef1dd // indirect
	github.com/modern-go/reflect2 v1.0.2 // indirect
	github.com/montanaflynn/stats v0.0.0-20171201202039-1bf9dbcd8cbe // indirect
	github.com/pelletier/go-toml/v2 v2.2.2 // indirect
	github.com/twitchyliquid64/golang-asm v0.15.1 // indirect
	github.com/ugorji/go/codec v1.2.12 // indirect
	github.com/xdg-go/pbkdf2 v1.0.0 // indirect
	github.com/xdg-go/scram v1.1.2 // indirect
	github.com/xdg-go/stringprep v1.0.4 // indirect
	github.com/youmark/pkcs8 v0.0.0-20181117223130-1be2e3e5546d // indirect
	golang.org/x/arch v0.8.0 // indirect
	golang.org/x/net v0.27.0 // indirect
	golang.org/x/sync v0.7.0 // indirect
	golang.org/x/sys v0.22.0 // indirect
	golang.org/x/text v0.16.0 // indirect
	golang.org/x/tools v0.23.0 // indirect
	google.golang.org/protobuf v1.34.2 // indirect
	gopkg.in/go-playground/assert.v1 v1.2.1 // indirect
	gopkg.in/yaml.v3 v3.0.1 // indirect
)
